…
## Creación del data frame con el número de casos por día


```r
casos_dia <- covid_19 %>%  group_by(fecha_reporte) %>% summarise(n = n()) 
casos_dia
```

```
## # A tibble: 433 x 2
##    fecha_reporte           n
##    <dttm>              <int>
##  1 2020-03-06 00:00:00     1
##  2 2020-03-09 00:00:00     2
##  3 2020-03-11 00:00:00     6
##  4 2020-03-12 00:00:00     5
##  5 2020-03-13 00:00:00     5
##  6 2020-03-14 00:00:00    18
##  7 2020-03-15 00:00:00    16
##  8 2020-03-16 00:00:00    14
##  9 2020-03-17 00:00:00    25
## 10 2020-03-18 00:00:00    12
## # ... with 423 more rows
```
